{
	"pngWidth":119,
	"pngHeight":11,
	"frameWidth":11,
	"frameHeight":11,
	"animations":
	{
		"default":
		{
			"startFrame":0,
			"frameCount":2,
			"framesPerSecond":1
		},
		"over":
		{
			"startFrame":2,
			"frameCount":2,
			"framesPerSecond":1
		},
		"clicked":
		{
			"startFrame":4,
			"frameCount":2,
			"framesPerSecond":1
		},
		"selected":
		{
			"startFrame":6,
			"frameCount":2,
			"framesPerSecond":1
		},
		"selectedOver":
		{
			"startFrame":8,
			"frameCount":2,
			"framesPerSecond":1
		}
	}
}