{
	"children":
	[
		{"type":"image", "name":"backer", "xPos":0, "yPos":0, "width":520, "height":415, "depth":0.0, "textureFilename":"bulletRingDialogBacker.png"},
		{"type":"label", "name":"title", "xPos":0, "yPos":8, "width":520, "height":43, "depth":2.0, "font":"Arial", "fontSize":30, "alignment":"center", "text":"CREATE BULLET RING"},
		{"type":"tableView", "name":"propertyTable", "xPos":4, "yPos":40, "width":512, "height":320, "depth":1.0},
		
		{"type":"label", "name":"l1", "xPos":279, "yPos":375, "width":114, "height":43, "depth":2.0, "font":"Arial", "fontSize":20, "alignment":"center", "text":"CREATE"},
		{"type":"button", "name":"createButton", "xPos":279, "yPos":365, "width":114, "height":43, "depth":1.0, "animation":"editorMenuButton"},
		
		{"type":"label", "name":"l2", "xPos":397, "yPos":375, "width":114, "height":43, "depth":2.0, "font":"Arial", "fontSize":20, "alignment":"center", "text":"CANCEL"},
		{"type":"button", "name":"cancelButton", "xPos":397, "yPos":365, "width":114, "height":43, "depth":1.0, "animation":"editorMenuButton"}
	]
}