{
	"children":
	[
		{"type":"label", "name":"l1", "xPos":-408, "yPos":70, "width":114, "height":43, "depth":2.0, "font":"Arial", "fontSize":20, "alignment":"center", "text":"NEW"},
		{"type":"button", "name":"newButton", "xPos":-408, "yPos":60, "width":114, "height":43, "depth":1.0, "animation":"editorMenuButton"},
		
		{"type":"label", "name":"l2", "xPos":-288, "yPos":70, "width":114, "height":43, "depth":2.0, "font":"Arial", "fontSize":20, "alignment":"center", "text":"COPY"},
		{"type":"button", "name":"copyButton", "xPos":-288, "yPos":60, "width":114, "height":43, "depth":1.0, "animation":"editorMenuButton"},
		
		{"type":"label", "name":"l3", "xPos":-168, "yPos":70, "width":114, "height":43, "depth":2.0, "font":"Arial", "fontSize":20, "alignment":"center", "text":"DELETE"},
		{"type":"button", "name":"deleteButton", "xPos":-168, "yPos":60, "width":114, "height":43, "depth":1.0, "animation":"editorMenuButton"},
		
		
		{"type":"image", "name":"leftLargeBacker", "xPos":-408, "yPos":108, "width":354, "height":960, "depth":0.0, "textureFilename":"largeBacker.png"},
		{"type":"tableView", "name":"enemyTable", "xPos":-404, "yPos":112, "width":346, "height":954, "depth":1.0},
		
		{"type":"image", "name":"rightLargeBacker", "xPos":968, "yPos":12, "width":520, "height":960, "depth":0.0, "textureFilename":"propertiesBacker.png"},
		{"type":"tableView", "name":"enemyDetailsTable", "xPos":972, "yPos":16, "width":512, "height":952, "depth":1.0},
		
		{"type":"node", "name":"newEnemyDialogAnchor", "xPos":282, "yPos":483}
	]
}