{
	"children":[
		{"type":"image", "name":"background", "xPos":0, "yPos":0, "width":354, "height":718, "depth":0.0, "textureFilename":"newBehaviorDialogBacker.png"},
			
		{"type":"label", "name":"titleLabel", "xPos":4, "yPos":10, "width":345, "height":43, "depth":1.0, "font":"Arial", "fontSize":26, "alignment":"center", "text":"NEW BEHAVIOR"},
		
		{"type":"label", "name":"nfdlcrbl", "xPos":59, "yPos":56, "width":114, "height":43, "depth":2.0, "font":"Arial", "fontSize":20, "alignment":"center", "text":"CREATE"},
		{"type":"button", "name":"createButton", "xPos":59, "yPos":46, "width":114, "height":43, "depth":1.0, "animation":"editorMenuButton"},
		
		{"type":"label", "name":"nfdlcbl", "xPos":181, "yPos":56, "width":114, "height":43, "depth":2.0, "font":"Arial", "fontSize":20, "alignment":"center", "text":"CANCEL"},
		{"type":"button", "name":"cancelButton", "xPos":181, "yPos":46, "width":114, "height":43, "depth":1.0, "animation":"editorMenuButton"},
		
		{"type":"tableView", "name":"behaviorTypeTable", "xPos":4, "yPos":96, "width":346, "height":618, "depth":1.0}
	]
}