{
	"children":
	[
		{"type":"node", "name":"equippedItem", "xPos":0, "yPos":0, "depth":0.0,
			"children":[
				{"type":"label", "name":"nameLabel", "xPos":0, "yPos":0, "width":85, "height":7, "depth":0.0, "font":"Pixel-UniCode", "fontSize":8, "alignment":"left", "text":"CUR NAME LABEL", "color":[0.05, 0.7, 0.0]},
				{"type":"node", "name":"statBar0", "xPos":0, "yPos":13, "depth":0.0,
					"children":[
						{"type":"label", "name":"statLabel", "xPos":0, "yPos":0, "width":14, "height":7, "depth":0.0, "font":"Pixel-UniCode", "fontSize":8, "alignment":"left", "text":"Stat1", "color":[0.05, 0.7, 0.0]},
						{"type":"image", "name":"barBacker", "xPos":17, "yPos":0, "width":67, "height":7, "depth":0.0, "textureFilename":"HBUComparisonBarBacker.png"},
						{"type":"fillBar", "name":"redBar", "xPos":18, "yPos":1, "width":65, "height":5, "depth":4.0, "textureFilename":"HBUBarRed.png"},
						{"type":"fillBar", "name":"greenBar", "xPos":18, "yPos":1, "width":65, "height":5, "depth":4.0, "textureFilename":"HBUBarGreen.png"},
						{"type":"fillBar", "name":"blueBar", "xPos":18, "yPos":1, "width":65, "height":5, "depth":4.0, "textureFilename":"HBUBarBlue.png"}
					]
				},
				{"type":"node", "name":"statBar1", "xPos":0, "yPos":22, "depth":0.0,
					"children":[
						{"type":"label", "name":"statLabel", "xPos":0, "yPos":0, "width":14, "height":7, "depth":0.0, "font":"Pixel-UniCode", "fontSize":8, "alignment":"left", "text":"Stat1", "color":[0.05, 0.7, 0.0]},
						{"type":"image", "name":"barBacker", "xPos":17, "yPos":0, "width":67, "height":7, "depth":0.0, "textureFilename":"HBUComparisonBarBacker.png"},
						{"type":"fillBar", "name":"redBar", "xPos":18, "yPos":1, "width":65, "height":5, "depth":4.0, "textureFilename":"HBUBarRed.png"},
						{"type":"fillBar", "name":"greenBar", "xPos":18, "yPos":1, "width":65, "height":5, "depth":4.0, "textureFilename":"HBUBarGreen.png"},
						{"type":"fillBar", "name":"blueBar", "xPos":18, "yPos":1, "width":65, "height":5, "depth":4.0, "textureFilename":"HBUBarBlue.png"}
					]
				},
				{"type":"node", "name":"statBar2", "xPos":0, "yPos":31, "depth":0.0,
					"children":[
						{"type":"label", "name":"curStatLabel2", "xPos":0, "yPos":0, "width":14, "height":7, "depth":0.0, "font":"Pixel-UniCode", "fontSize":8, "alignment":"left", "text":"Stat1", "color":[0.05, 0.7, 0.0]},
						{"type":"image", "name":"barBacker2", "xPos":17, "yPos":0, "width":67, "height":7, "depth":0.0, "textureFilename":"HBUComparisonBarBacker.png"},
						{"type":"fillBar", "name":"curRedBar2", "xPos":18, "yPos":1, "width":65, "height":5, "depth":4.0, "textureFilename":"HBUBarRed.png"},
						{"type":"fillBar", "name":"curGreenBar2", "xPos":18, "yPos":1, "width":65, "height":5, "depth":4.0, "textureFilename":"HBUBarGreen.png"},
						{"type":"fillBar", "name":"curBlueBar2", "xPos":18, "yPos":1, "width":65, "height":5, "depth":4.0, "textureFilename":"HBUBarBlue.png"}
					]
				}
			]
		},
		{"type":"node", "name":"newItem", "xPos":0, "yPos":43, "depth":0.0,
			"children":[
				{"type":"label", "name":"nameLabel", "xPos":0, "yPos":0, "width":85, "height":7, "depth":0.0, "font":"Pixel-UniCode", "fontSize":8, "alignment":"left", "text":"CUR NAME LABEL", "color":[0.05, 0.7, 0.0]},
				{"type":"node", "name":"statBar0", "xPos":0, "yPos":13, "depth":0.0,
					"children":[
						{"type":"label", "name":"statLabel", "xPos":0, "yPos":0, "width":14, "height":7, "depth":0.0, "font":"Pixel-UniCode", "fontSize":8, "alignment":"left", "text":"Stat1", "color":[0.05, 0.7, 0.0]},
						{"type":"image", "name":"barBacker", "xPos":17, "yPos":0, "width":67, "height":7, "depth":0.0, "textureFilename":"HBUComparisonBarBacker.png"},
						{"type":"fillBar", "name":"redBar", "xPos":18, "yPos":1, "width":65, "height":5, "depth":4.0, "textureFilename":"HBUBarRed.png"},
						{"type":"fillBar", "name":"greenBar", "xPos":18, "yPos":1, "width":65, "height":5, "depth":4.0, "textureFilename":"HBUBarGreen.png"},
						{"type":"fillBar", "name":"blueBar", "xPos":18, "yPos":1, "width":65, "height":5, "depth":4.0, "textureFilename":"HBUBarBlue.png"}
					]
				},
				{"type":"node", "name":"statBar1", "xPos":0, "yPos":22, "depth":0.0,
					"children":[
						{"type":"label", "name":"statLabel", "xPos":0, "yPos":0, "width":14, "height":7, "depth":0.0, "font":"Pixel-UniCode", "fontSize":8, "alignment":"left", "text":"Stat1", "color":[0.05, 0.7, 0.0]},
						{"type":"image", "name":"barBacker", "xPos":17, "yPos":0, "width":67, "height":7, "depth":0.0, "textureFilename":"HBUComparisonBarBacker.png"},
						{"type":"fillBar", "name":"redBar", "xPos":18, "yPos":1, "width":65, "height":5, "depth":4.0, "textureFilename":"HBUBarRed.png"},
						{"type":"fillBar", "name":"greenBar", "xPos":18, "yPos":1, "width":65, "height":5, "depth":4.0, "textureFilename":"HBUBarGreen.png"},
						{"type":"fillBar", "name":"blueBar", "xPos":18, "yPos":1, "width":65, "height":5, "depth":4.0, "textureFilename":"HBUBarBlue.png"}
					]
				},
				{"type":"node", "name":"statBar2", "xPos":0, "yPos":31, "depth":0.0,
					"children":[
						{"type":"label", "name":"statLabel", "xPos":0, "yPos":0, "width":14, "height":7, "depth":0.0, "font":"Pixel-UniCode", "fontSize":8, "alignment":"left", "text":"Stat1", "color":[0.05, 0.7, 0.0]},
						{"type":"image", "name":"barBacker", "xPos":17, "yPos":0, "width":67, "height":7, "depth":0.0, "textureFilename":"HBUComparisonBarBacker.png"},
						{"type":"fillBar", "name":"redBar", "xPos":18, "yPos":1, "width":65, "height":5, "depth":4.0, "textureFilename":"HBUBarRed.png"},
						{"type":"fillBar", "name":"greenBar", "xPos":18, "yPos":1, "width":65, "height":5, "depth":4.0, "textureFilename":"HBUBarGreen.png"},
						{"type":"fillBar", "name":"blueBar", "xPos":18, "yPos":1, "width":65, "height":5, "depth":4.0, "textureFilename":"HBUBarBlue.png"}
					]
				}
			]
		}
	]
}