{
	"children":
	[
		{"type":"button", "name":"primaryWeaponButton", "xPos":0.6, "yPos":0.365, "width":0.1, "height":0.05, "depth":1.0, 
			"textureFilename":"emptyItemThumbnail.png", "pressedTextureFilename":"emptyItemThumbnail_pressed.png", "selectedTextureFilename":"emptyItemThumbnail_selected.png"},
			
		{"type":"button", "name":"secondaryWeaponButton1", "xPos":0.2, "yPos":0.15, "width":0.1, "height":0.05, "depth":1.0, 
			"textureFilename":"emptyItemThumbnail.png", "pressedTextureFilename":"emptyItemThumbnail_pressed.png", "selectedTextureFilename":"emptyItemThumbnail_selected.png"},
		
		{"type":"button", "name":"secondaryWeaponButton2", "xPos":0.2, "yPos":0.575, "width":0.1, "height":0.05, "depth":1.0, 
			"textureFilename":"emptyItemThumbnail.png", "pressedTextureFilename":"emptyItemThumbnail_pressed.png", "selectedTextureFilename":"emptyItemThumbnail_selected.png"},
		
		{"type":"button", "name":"shieldButton", "xPos":0.175, "yPos":0.265, "width":0.1, "height":0.05, "depth":1.0, 
			"textureFilename":"emptyItemThumbnail.png", "pressedTextureFilename":"emptyItemThumbnail_pressed.png", "selectedTextureFilename":"emptyItemThumbnail_selected.png"},
			
		{"type":"button", "name":"armorButton", "xPos":0.175, "yPos":0.465, "width":0.1, "height":0.05, "depth":1.0, 
			"textureFilename":"emptyItemThumbnail.png", "pressedTextureFilename":"emptyItemThumbnail_pressed.png", "selectedTextureFilename":"emptyItemThumbnail_selected.png"},
			
		{"type":"button", "name":"upgradeButton", "xPos":0.4, "yPos":0.365, "width":0.1, "height":0.05, "depth":1.0, 
			"textureFilename":"emptyItemThumbnail.png", "pressedTextureFilename":"emptyItemThumbnail_pressed.png", "selectedTextureFilename":"emptyItemThumbnail_selected.png"},
			
		{"type":"image", "name":"primaryWeaponImage", "xPos":0.6, "yPos":0.365, "width":0.1, "height":0.05, "depth":2.0, "textureFilename":""},
			
		{"type":"image", "name":"secondaryWeaponImage1", "xPos":0.2, "yPos":0.15, "width":0.1, "height":0.05, "depth":2.0, "textureFilename":""},
			
		{"type":"image", "name":"secondaryWeaponImage2", "xPos":0.2, "yPos":0.575, "width":0.1, "height":0.05, "depth":2.0, "textureFilename":""},
			
		{"type":"image", "name":"shieldImage", "xPos":0.175, "yPos":0.265, "width":0.1, "height":0.05, "depth":2.0, "textureFilename":""},
			
		{"type":"image", "name":"armorImage", "xPos":0.175, "yPos":0.465, "width":0.1, "height":0.05, "depth":2.0, "textureFilename":""},
			
		{"type":"image", "name":"upgradeImage", "xPos":0.4, "yPos":0.365, "width":0.1, "height":0.05, "depth":2.0, "textureFilename":""},
	
		{"type":"button", "name":"equipButton", "xPos":0.78, "yPos":0.7325, "width":0.304166, "height":0.075, "depth":1.0, 
			"textureFilename":"ui_inventory_equipButton_normal.png", "pressedTextureFilename":"ui_inventory_equipButton_pressed.png"},
		
		{"type":"button", "name":"closeButton", "xPos":0.78, "yPos":0.845, "width":0.304166, "height":0.075, "depth":1.0, 
			"textureFilename":"ui_inventory_closeButton_normal.png", "pressedTextureFilename":"ui_inventory_closeButton_pressed.png"},
			
		{"type":"button", "name":"upButton", "xPos":0.9, "yPos":0.1, "width":0.0625, "height":0.0291667, "depth":1.0, 
			"textureFilename":"ui_inventory_upButton_normal.png", "pressedTextureFilename":"ui_inventory_upButton_pressed.png", "selectedTextureFilename":"ui_inventory_upButton_selected.png"},
			
		{"type":"button", "name":"downButton", "xPos":0.9, "yPos":0.675, "width":0.0625, "height":0.0291667, "depth":1.0, 
			"textureFilename":"ui_inventory_downButton_normal.png", "pressedTextureFilename":"ui_inventory_downButton_pressed.png", "selectedTextureFilename":"ui_inventory_downButton_selected.png"},
			
		{"type":"button", "name":"itemButton0", "xPos":0.7875, "yPos":0.13333, "width":0.27916667, "height":0.10416667, "depth":1.0, 
			"textureFilename":"ui_inventory_itemBackground_normal.png", "pressedTextureFilename":"ui_inventory_itemBackground_pressed.png", "selectedTextureFilename":"ui_inventory_itemBackground_selected.png"},
			
		{"type":"button", "name":"itemButton1", "xPos":0.7875, "yPos":0.2416667, "width":0.27916667, "height":0.10416667, "depth":1.0, 
			"textureFilename":"ui_inventory_itemBackground_normal.png", "pressedTextureFilename":"ui_inventory_itemBackground_pressed.png", "selectedTextureFilename":"ui_inventory_itemBackground_selected.png"},
			
		{"type":"button", "name":"itemButton2", "xPos":0.7875, "yPos":0.35, "width":0.27916667, "height":0.10416667, "depth":1.0, 
			"textureFilename":"ui_inventory_itemBackground_normal.png", "pressedTextureFilename":"ui_inventory_itemBackground_pressed.png", "selectedTextureFilename":"ui_inventory_itemBackground_selected.png"},
			
		{"type":"button", "name":"itemButton3", "xPos":0.7875, "yPos":0.4583333, "width":0.27916667, "height":0.10416667, "depth":1.0, 
			"textureFilename":"ui_inventory_itemBackground_normal.png", "pressedTextureFilename":"ui_inventory_itemBackground_pressed.png", "selectedTextureFilename":"ui_inventory_itemBackground_selected.png"},
			
		{"type":"button", "name":"itemButton4", "xPos":0.7875, "yPos":0.56667, "width":0.27916667, "height":0.10416667, "depth":1.0, 
			"textureFilename":"ui_inventory_itemBackground_normal.png", "pressedTextureFilename":"ui_inventory_itemBackground_pressed.png", "selectedTextureFilename":"ui_inventory_itemBackground_selected.png"},
		
		{"type":"image", "name":"itemImageBck0", "xPos":0.875, "yPos":0.1416667, "width":0.1, "height":0.05, "depth":2.0, "textureFilename":"emptyItemThumbnail.png"},
			
		{"type":"image", "name":"itemImageBck1", "xPos":0.875, "yPos":0.25, "width":0.1, "height":0.05, "depth":2.0, "textureFilename":"emptyItemThumbnail.png"},
			
		{"type":"image", "name":"itemImageBck2", "xPos":0.875, "yPos":0.3583333, "width":0.1, "height":0.05, "depth":2.0, "textureFilename":"emptyItemThumbnail.png"},
			
		{"type":"image", "name":"itemImageBck3", "xPos":0.875, "yPos":0.46667, "width":0.1, "height":0.05, "depth":2.0, "textureFilename":"emptyItemThumbnail.png"},
			
		{"type":"image", "name":"itemImageBck4", "xPos":0.875, "yPos":0.575, "width":0.1, "height":0.05, "depth":2.0, "textureFilename":"emptyItemThumbnail.png"},
			
		{"type":"image", "name":"itemImage0", "xPos":0.875, "yPos":0.1416667, "width":0.1, "height":0.05, "depth":3.0, "textureFilename":""},
			
		{"type":"image", "name":"itemImage1", "xPos":0.875, "yPos":0.25, "width":0.1, "height":0.05, "depth":3.0, "textureFilename":""},
			
		{"type":"image", "name":"itemImage2", "xPos":0.875, "yPos":0.3583333, "width":0.1, "height":0.05, "depth":3.0, "textureFilename":""},
			
		{"type":"image", "name":"itemImage3", "xPos":0.875, "yPos":0.46667, "width":0.1, "height":0.05, "depth":3.0, "textureFilename":""},
			
		{"type":"image", "name":"itemImage4", "xPos":0.875, "yPos":0.575, "width":0.1, "height":0.05, "depth":3.0, "textureFilename":""},
			
		{"type":"label", "name":"descriptionLabel", "font":"assets\\fonts\\arial.ttf", "fontSize":18, "text":"", "xPos":-0.0416667, "yPos":0.75, "width":1.0, "height":0.18, "depth":2.0, "multiLine":true, "verticalSpacing":20},
		
		{"type":"image", "name":"background", "xPos":-0.1667, "yPos":0.0, "width":1.3333, "height":1.0, "depth":0.0, "textureFilename":"ui_inventory_background.png"}
	]
}