{
	"children":
	[
		{"type":"image", "name":"background", "xPos":-120, "yPos":0, "width":480, "height":240, "textureFilename":"reprocessing_background.png"},
		
		{"type":"label", "name":"scrapLabel", "xPos":65, "yPos":142, "width":33, "height":11, "depth":2.0, 
			"font":"Pixel-UniCode", "fontSize":14, "alignment":"center", "text":"999", "color":[0.85, 0.65, 0.1]},
		{"type":"label", "name":"energyLabel", "xPos":127, "yPos":142, "width":33, "height":11, "depth":2.0,
			"font":"Pixel-UniCode", "fontSize":14, "alignment":"center", "text":"999", "color":[0.19, 0.75, 0.88]},
		
		{"type":"button", "name":"convertButton0", "xPos":43, "yPos":167, "width":48, "height":11, "depth":1.0, "animation":"RPSmallConvertButton"},
		{"type":"label", "name":"convert0ScrapLabel", "xPos":43, "yPos":169, "width":14, "height":11, "depth":2.0, 
			"font":"Pixel-UniCode", "fontSize":9, "alignment":"center", "text":"99", "color":[0.85, 0.65, 0.1]},
		{"type":"label", "name":"convert0EnergyLabel", "xPos":71, "yPos":169, "width":14, "height":11, "depth":2.0,
			"font":"Pixel-UniCode", "fontSize":9, "alignment":"center", "text":"99", "color":[0.19, 0.75, 0.88]},
		
		{"type":"button", "name":"convertButton1", "xPos":94, "yPos":167, "width":48, "height":11, "depth":1.0, "animation":"RPSmallConvertButton"},
		{"type":"label", "name":"convert1ScrapLabel", "xPos":94, "yPos":169, "width":14, "height":11, "depth":2.0, 
			"font":"Pixel-UniCode", "fontSize":9, "alignment":"center", "text":"99", "color":[0.85, 0.65, 0.1]},
		{"type":"label", "name":"convert1EnergyLabel", "xPos":122, "yPos":169, "width":14, "height":11, "depth":2.0,
			"font":"Pixel-UniCode", "fontSize":9, "alignment":"center", "text":"99", "color":[0.19, 0.75, 0.88]},
		
		{"type":"button", "name":"convertButton2", "xPos":149, "yPos":167, "width":48, "height":11, "depth":1.0, "animation":"RPSmallConvertButton"},
		{"type":"label", "name":"convert2ScrapLabel", "xPos":149, "yPos":169, "width":14, "height":11, "depth":2.0, 
			"font":"Pixel-UniCode", "fontSize":9, "alignment":"center", "text":"99", "color":[0.85, 0.65, 0.1]},
		{"type":"label", "name":"convert2EnergyLabel", "xPos":177, "yPos":169, "width":14, "height":11, "depth":2.0,
			"font":"Pixel-UniCode", "fontSize":9, "alignment":"center", "text":"99", "color":[0.19, 0.75, 0.88]},
		
		{"type":"button", "name":"convertAllButton", "xPos":85, "yPos":185, "width":70, "height":11, "depth":1.0, "animation":"RPLargeConvertButton"},
		{"type":"label", "name":"convertAllScrapLabel", "xPos":85, "yPos":187, "width":24, "height":11, "depth":2.0, 
			"font":"Pixel-UniCode", "fontSize":9, "alignment":"center", "text":"99", "color":[0.85, 0.65, 0.1]},
		{"type":"label", "name":"convertAllEnergyLabel", "xPos":123, "yPos":187, "width":25, "height":11, "depth":2.0,
			"font":"Pixel-UniCode", "fontSize":9, "alignment":"center", "text":"99", "color":[0.19, 0.75, 0.88]},
		
		{"type":"button", "name":"turboliftButton", "xPos":230, "yPos":160, "width":30, "height":50, "depth":1.0, "animation":"HBTLButton"}
	]
}