{
	"pngWidth":175,
	"pngHeight":43,
	"frameWidth":43,
	"frameHeight":43,
	"animations":
	{
		"default":
		{
			"startFrame":0,
			"frameCount":1,
			"framesPerSecond":1
		},
		"over":
		{
			"startFrame":1,
			"frameCount":1,
			"framesPerSecond":1
		},
		"clicked":
		{
			"startFrame":2,
			"frameCount":1,
			"framesPerSecond":1
		},
		"disabled":
		{
			"startFrame":3,
			"frameCount":1,
			"framesPerSecond":1
		}
	}
}