{
	"pngWidth":509,
	"pngHeight":461,
	"frameWidth":50,
	"frameHeight":76,
	"animations":
	{
		"default":
		{
			"startFrame":0,
			"frameCount":18,
			"framesPerSecond":16
		},
		"leftBombLaunch":
		{
			"startFrame":20,
			"frameCount":18,
			"framesPerSecond":16
		},
		"rightBombLaunch":
		{
			"startFrame":40,
			"frameCount":18,
			"framesPerSecond":16
		}
	}
}