{
	"pngWidth":130,
	"pngHeight":41,
	"frameWidth":130,
	"frameHeight":20,
	"animations":
	{
		"default":
		{
			"startFrame":0,
			"frameCount":1,
			"framesPerSecond":16
		},
		"clicked":
		{
			"startFrame":1,
			"frameCount":1,
			"framesPerSecond":16
		}
	}
}