{
	"pngWidth":346,
	"pngHeight":203,
	"frameWidth":346,
	"frameHeight":33,
	"animations":
	{
		"default":
		{
			"startFrame":0,
			"frameCount":1,
			"framesPerSecond":1
		},
		"over":
		{
			"startFrame":1,
			"frameCount":1,
			"framesPerSecond":1
		},
		"clicked":
		{
			"startFrame":2,
			"frameCount":1,
			"framesPerSecond":1
		},
		"selected":
		{
			"startFrame":3,
			"frameCount":1,
			"framesPerSecond":1
		},
		"selectedOver":
		{
			"startFrame":4,
			"frameCount":1,
			"framesPerSecond":1
		},
		"selectedClicked":
		{
			"startFrame":5,
			"frameCount":1,
			"framesPerSecond":1
		}
	}
}