{
	"pngWidth":130,
	"pngHeight":67,
	"frameWidth":130,
	"frameHeight":16,
	"animations":
	{
		"default":
		{
			"startFrame":0,
			"frameCount":1,
			"framesPerSecond":16
		},
		"over":
		{
			"startFrame":1,
			"frameCount":1,
			"framesPerSecond":16
		},
		"clicked":
		{
			"startFrame":2,
			"frameCount":1,
			"framesPerSecond":16
		},
		"disabled":
		{
			"startFrame":3,
			"frameCount":1,
			"framesPerSecond":16
		}
	}
}