{
	"pngWidth":64,
	"pngHeight":64,
	"frameWidth":7,
	"frameHeight":25,
	"animations":
	{
		"default":
		{
			"startFrame":0,
			"frameCount":1,
			"framesPerSecond":10
		},
		"charge":
		{
			"startFrame":1,
			"frameCount":9,
			"framesPerSecond":10
		},
		"fire":
		{
			"startFrame":10,
			"frameCount":5,
			"framesPerSecond":10
		}
	}
}